%YAML 1.1
%TAG !u! tag:unity3d.com,2011:
--- !u!114 &11400000
MonoBehaviour:
  m_ObjectHideFlags: 0
  m_CorrespondingSourceObject: {fileID: 0}
  m_PrefabInstance: {fileID: 0}
  m_PrefabAsset: {fileID: 0}
  m_GameObject: {fileID: 0}
  m_Enabled: 1
  m_EditorHideFlags: 0
  m_Script: {fileID: 11500000, guid: 3437cf07d4e34cf44969373e467783d1, type: 3}
  m_Name: Flea X 3
  m_EditorClassIdentifier: 
  prefabNames:
  - FleaEnemy
  - FleaEnemy
  - FleaEnemy
  posns:
  - {x: -0.57, y: -0.032889426, z: 0}
  - {x: 0.59, y: -0.01, z: 0}
  - {x: -0.02, y: 0.59, z: 0}
