%YAML 1.1
%TAG !u! tag:unity3d.com,2011:
--- !u!114 &11400000
MonoBehaviour:
  m_ObjectHideFlags: 0
  m_CorrespondingSourceObject: {fileID: 0}
  m_PrefabInstance: {fileID: 0}
  m_PrefabAsset: {fileID: 0}
  m_GameObject: {fileID: 0}
  m_Enabled: 1
  m_EditorHideFlags: 0
  m_Script: {fileID: 11500000, guid: 3437cf07d4e34cf44969373e467783d1, type: 3}
  m_Name: S x 5 B x 3
  m_EditorClassIdentifier: 
  prefabNames:
  - Enemy
  - Enemy
  - Enemy
  - Enemy
  - Enemy
  - BeetleEnemy
  - BeetleEnemy
  - BeetleEnemy
  posns:
  - {x: -1.4426224, y: 0.45126855, z: 0}
  - {x: -0.7565503, y: -1.460736, z: 0}
  - {x: 1.3579019, y: -1.4494889, z: 0}
  - {x: 2.5051048, y: 0.22632682, z: 0}
  - {x: 0.041992903, y: 1.845907, z: 0}
  - {x: 0.28942883, y: 0.8786579, z: 0}
  - {x: -0.30666685, y: -0.3022862, z: 0}
  - {x: 1.0654777, y: 0.012632206, z: 0}
