%YAML 1.1
%TAG !u! tag:unity3d.com,2011:
--- !u!114 &11400000
MonoBehaviour:
  m_ObjectHideFlags: 0
  m_CorrespondingSourceObject: {fileID: 0}
  m_PrefabInstance: {fileID: 0}
  m_PrefabAsset: {fileID: 0}
  m_GameObject: {fileID: 0}
  m_Enabled: 1
  m_EditorHideFlags: 0
  m_Script: {fileID: 11500000, guid: 3437cf07d4e34cf44969373e467783d1, type: 3}
  m_Name: Stink Bug x 3
  m_EditorClassIdentifier: 
  prefabNames:
  - StinkBugEnemy
  - StinkBugEnemy
  - StinkBugEnemy
  posns:
  - {x: -0.96, y: -0.48, z: 0}
  - {x: 0.90000004, y: -0.41999993, z: 0}
  - {x: -0.01, y: 0.95, z: 0}
