%YAML 1.1
%TAG !u! tag:unity3d.com,2011:
--- !u!1 &3410849793235785277
GameObject:
  m_ObjectHideFlags: 0
  m_CorrespondingSourceObject: {fileID: 0}
  m_PrefabInstance: {fileID: 0}
  m_PrefabAsset: {fileID: 0}
  serializedVersion: 6
  m_Component:
  - component: {fileID: 7564431688648002052}
  - component: {fileID: 6276148530030434289}
  m_Layer: 0
  m_Name: SoulContainer
  m_TagString: Untagged
  m_Icon: {fileID: 0}
  m_NavMeshLayer: 0
  m_StaticEditorFlags: 0
  m_IsActive: 1
--- !u!4 &7564431688648002052
Transform:
  m_ObjectHideFlags: 0
  m_CorrespondingSourceObject: {fileID: 0}
  m_PrefabInstance: {fileID: 0}
  m_PrefabAsset: {fileID: 0}
  m_GameObject: {fileID: 3410849793235785277}
  m_LocalRotation: {x: 0, y: 0, z: 0, w: 1}
  m_LocalPosition: {x: 0, y: 0, z: 0}
  m_LocalScale: {x: 1, y: 1, z: 1}
  m_ConstrainProportionsScale: 0
  m_Children:
  - {fileID: 2459451396950048184}
  m_Father: {fileID: 0}
  m_RootOrder: 0
  m_LocalEulerAnglesHint: {x: 0, y: 0, z: 0}
--- !u!114 &6276148530030434289
MonoBehaviour:
  m_ObjectHideFlags: 0
  m_CorrespondingSourceObject: {fileID: 0}
  m_PrefabInstance: {fileID: 0}
  m_PrefabAsset: {fileID: 0}
  m_GameObject: {fileID: 3410849793235785277}
  m_Enabled: 1
  m_EditorHideFlags: 0
  m_Script: {fileID: 11500000, guid: ee0a71b71667d47f8a9579eeb097bb7e, type: 3}
  m_Name: 
  m_EditorClassIdentifier: 
  speed: 3
  target: {fileID: 0}
--- !u!1001 &1455310296587286035
PrefabInstance:
  m_ObjectHideFlags: 0
  serializedVersion: 2
  m_Modification:
    m_TransformParent: {fileID: 7564431688648002052}
    m_Modifications:
    - target: {fileID: 3379305967847005282, guid: fad787c16fcc5448fb6d2a11979ae5b0, type: 3}
      propertyPath: TrailModule.dieWithParticles
      value: 0
      objectReference: {fileID: 0}
    - target: {fileID: 3896729694250601387, guid: fad787c16fcc5448fb6d2a11979ae5b0, type: 3}
      propertyPath: m_RootOrder
      value: 0
      objectReference: {fileID: 0}
    - target: {fileID: 3896729694250601387, guid: fad787c16fcc5448fb6d2a11979ae5b0, type: 3}
      propertyPath: m_LocalPosition.x
      value: 0
      objectReference: {fileID: 0}
    - target: {fileID: 3896729694250601387, guid: fad787c16fcc5448fb6d2a11979ae5b0, type: 3}
      propertyPath: m_LocalPosition.y
      value: 0
      objectReference: {fileID: 0}
    - target: {fileID: 3896729694250601387, guid: fad787c16fcc5448fb6d2a11979ae5b0, type: 3}
      propertyPath: m_LocalPosition.z
      value: 0
      objectReference: {fileID: 0}
    - target: {fileID: 3896729694250601387, guid: fad787c16fcc5448fb6d2a11979ae5b0, type: 3}
      propertyPath: m_LocalRotation.w
      value: 1
      objectReference: {fileID: 0}
    - target: {fileID: 3896729694250601387, guid: fad787c16fcc5448fb6d2a11979ae5b0, type: 3}
      propertyPath: m_LocalRotation.x
      value: 0
      objectReference: {fileID: 0}
    - target: {fileID: 3896729694250601387, guid: fad787c16fcc5448fb6d2a11979ae5b0, type: 3}
      propertyPath: m_LocalRotation.y
      value: 0
      objectReference: {fileID: 0}
    - target: {fileID: 3896729694250601387, guid: fad787c16fcc5448fb6d2a11979ae5b0, type: 3}
      propertyPath: m_LocalRotation.z
      value: 0
      objectReference: {fileID: 0}
    - target: {fileID: 3896729694250601387, guid: fad787c16fcc5448fb6d2a11979ae5b0, type: 3}
      propertyPath: m_LocalEulerAnglesHint.x
      value: 0
      objectReference: {fileID: 0}
    - target: {fileID: 3896729694250601387, guid: fad787c16fcc5448fb6d2a11979ae5b0, type: 3}
      propertyPath: m_LocalEulerAnglesHint.y
      value: 0
      objectReference: {fileID: 0}
    - target: {fileID: 3896729694250601387, guid: fad787c16fcc5448fb6d2a11979ae5b0, type: 3}
      propertyPath: m_LocalEulerAnglesHint.z
      value: 0
      objectReference: {fileID: 0}
    - target: {fileID: 7855125156434425391, guid: fad787c16fcc5448fb6d2a11979ae5b0, type: 3}
      propertyPath: m_Name
      value: SoulVFX
      objectReference: {fileID: 0}
    m_RemovedComponents: []
  m_SourcePrefab: {fileID: 100100000, guid: fad787c16fcc5448fb6d2a11979ae5b0, type: 3}
--- !u!4 &2459451396950048184 stripped
Transform:
  m_CorrespondingSourceObject: {fileID: 3896729694250601387, guid: fad787c16fcc5448fb6d2a11979ae5b0, type: 3}
  m_PrefabInstance: {fileID: 1455310296587286035}
  m_PrefabAsset: {fileID: 0}
