%YAML 1.1
%TAG !u! tag:unity3d.com,2011:
--- !u!114 &11400000
MonoBehaviour:
  m_ObjectHideFlags: 0
  m_CorrespondingSourceObject: {fileID: 0}
  m_PrefabInstance: {fileID: 0}
  m_PrefabAsset: {fileID: 0}
  m_GameObject: {fileID: 0}
  m_Enabled: 1
  m_EditorHideFlags: 0
  m_Script: {fileID: 11500000, guid: 3437cf07d4e34cf44969373e467783d1, type: 3}
  m_Name: Roly X5
  m_EditorClassIdentifier: 
  prefabNames:
  - RolypolyEnemy
  - RolypolyEnemy
  - RolypolyEnemy
  - RolypolyEnemy
  - RolypolyEnemy
  posns:
  - {x: -1.89, y: -1.84, z: 0}
  - {x: 2.11, y: -1.84, z: 0}
  - {x: -2, y: 1.09, z: 0}
  - {x: 2.09, y: 1.09, z: 0}
  - {x: 0.03, y: -0.34, z: 0}
