%YAML 1.1
%TAG !u! tag:unity3d.com,2011:
--- !u!1 &1012910166483950024
GameObject:
  m_ObjectHideFlags: 0
  m_CorrespondingSourceObject: {fileID: 0}
  m_PrefabInstance: {fileID: 0}
  m_PrefabAsset: {fileID: 0}
  serializedVersion: 6
  m_Component:
  - component: {fileID: 1012910166483950023}
  - component: {fileID: 1012910166483950068}
  - component: {fileID: 1012910166483950027}
  - component: {fileID: 1012910166483950021}
  - component: {fileID: 1012910166483950026}
  - component: {fileID: 3009203158690074231}
  m_Layer: 11
  m_Name: BallObstacle
  m_TagString: Obstacle
  m_Icon: {fileID: 0}
  m_NavMeshLayer: 0
  m_StaticEditorFlags: 0
  m_IsActive: 1
--- !u!4 &1012910166483950023
Transform:
  m_ObjectHideFlags: 0
  m_CorrespondingSourceObject: {fileID: 0}
  m_PrefabInstance: {fileID: 0}
  m_PrefabAsset: {fileID: 0}
  m_GameObject: {fileID: 1012910166483950024}
  m_LocalRotation: {x: 0, y: 0, z: 0, w: 1}
  m_LocalPosition: {x: 0, y: 0, z: 0}
  m_LocalScale: {x: 1, y: 1, z: 1}
  m_ConstrainProportionsScale: 0
  m_Children:
  - {fileID: 2614744573393097590}
  m_Father: {fileID: 0}
  m_RootOrder: 0
  m_LocalEulerAnglesHint: {x: 0, y: 0, z: 0}
--- !u!114 &1012910166483950068
MonoBehaviour:
  m_ObjectHideFlags: 0
  m_CorrespondingSourceObject: {fileID: 0}
  m_PrefabInstance: {fileID: 0}
  m_PrefabAsset: {fileID: 0}
  m_GameObject: {fileID: 1012910166483950024}
  m_Enabled: 1
  m_EditorHideFlags: 0
  m_Script: {fileID: 11500000, guid: e5a4d9b69231b714ca4a16f85856b0c0, type: 3}
  m_Name: 
  m_EditorClassIdentifier: 
  Hitbox: {fileID: 1012910166483950026}
  rb: {fileID: 1012910166483950021}
  type: {fileID: 1012910166483950027}
  healthBar: {fileID: 0}
  sprite: {fileID: 3009203158690074231}
  pushDistance: 0
  carryObject: {fileID: 0}
  pushDirection: {x: 0, y: 0}
--- !u!114 &1012910166483950027
MonoBehaviour:
  m_ObjectHideFlags: 0
  m_CorrespondingSourceObject: {fileID: 0}
  m_PrefabInstance: {fileID: 0}
  m_PrefabAsset: {fileID: 0}
  m_GameObject: {fileID: 1012910166483950024}
  m_Enabled: 1
  m_EditorHideFlags: 0
  m_Script: {fileID: 11500000, guid: c52194477c48c064bba94e9a214b7f6b, type: 3}
  m_Name: 
  m_EditorClassIdentifier: 
  ob: {fileID: 1012910166483950068}
  vfxManager: {fileID: 0}
  Health: 0
  MaxHealth: 0
  weight: 2
  knockback: 10
  dropShadowObject: {fileID: 8042384733076107859}
  damage: 100
--- !u!50 &1012910166483950021
Rigidbody2D:
  serializedVersion: 4
  m_ObjectHideFlags: 0
  m_CorrespondingSourceObject: {fileID: 0}
  m_PrefabInstance: {fileID: 0}
  m_PrefabAsset: {fileID: 0}
  m_GameObject: {fileID: 1012910166483950024}
  m_BodyType: 0
  m_Simulated: 1
  m_UseFullKinematicContacts: 0
  m_UseAutoMass: 0
  m_Mass: 1
  m_LinearDrag: 0.2
  m_AngularDrag: 0.2
  m_GravityScale: 0
  m_Material: {fileID: 6200000, guid: 928a2c67932aaa248a09dd3b40b875f7, type: 2}
  m_Interpolate: 0
  m_SleepingMode: 1
  m_CollisionDetection: 0
  m_Constraints: 4
--- !u!58 &1012910166483950026
CircleCollider2D:
  m_ObjectHideFlags: 0
  m_CorrespondingSourceObject: {fileID: 0}
  m_PrefabInstance: {fileID: 0}
  m_PrefabAsset: {fileID: 0}
  m_GameObject: {fileID: 1012910166483950024}
  m_Enabled: 1
  m_Density: 1
  m_Material: {fileID: 0}
  m_IsTrigger: 0
  m_UsedByEffector: 0
  m_UsedByComposite: 0
  m_Offset: {x: 0, y: 0}
  serializedVersion: 2
  m_Radius: 0.71
--- !u!212 &3009203158690074231
SpriteRenderer:
  m_ObjectHideFlags: 0
  m_CorrespondingSourceObject: {fileID: 0}
  m_PrefabInstance: {fileID: 0}
  m_PrefabAsset: {fileID: 0}
  m_GameObject: {fileID: 1012910166483950024}
  m_Enabled: 1
  m_CastShadows: 0
  m_ReceiveShadows: 0
  m_DynamicOccludee: 1
  m_StaticShadowCaster: 0
  m_MotionVectors: 1
  m_LightProbeUsage: 1
  m_ReflectionProbeUsage: 1
  m_RayTracingMode: 0
  m_RayTraceProcedural: 0
  m_RenderingLayerMask: 1
  m_RendererPriority: 0
  m_Materials:
  - {fileID: 2100000, guid: a97c105638bdf8b4a8650670310a4cd3, type: 2}
  m_StaticBatchInfo:
    firstSubMesh: 0
    subMeshCount: 0
  m_StaticBatchRoot: {fileID: 0}
  m_ProbeAnchor: {fileID: 0}
  m_LightProbeVolumeOverride: {fileID: 0}
  m_ScaleInLightmap: 1
  m_ReceiveGI: 1
  m_PreserveUVs: 0
  m_IgnoreNormalsForChartDetection: 0
  m_ImportantGI: 0
  m_StitchLightmapSeams: 1
  m_SelectedEditorRenderState: 0
  m_MinimumChartSize: 4
  m_AutoUVMaxDistance: 0.5
  m_AutoUVMaxAngle: 89
  m_LightmapParameters: {fileID: 0}
  m_SortingLayerID: 0
  m_SortingLayer: 0
  m_SortingOrder: 0
  m_Sprite: {fileID: 21300000, guid: ca4a36c26a88ba1468b3dafb98561a00, type: 3}
  m_Color: {r: 1, g: 1, b: 1, a: 1}
  m_FlipX: 0
  m_FlipY: 0
  m_DrawMode: 1
  m_Size: {x: 1.9900494, y: 2.0100498}
  m_AdaptiveModeThreshold: 0.5
  m_SpriteTileMode: 0
  m_WasSpriteAssigned: 1
  m_MaskInteraction: 0
  m_SpriteSortPoint: 1
--- !u!1001 &3675488657063791646
PrefabInstance:
  m_ObjectHideFlags: 0
  serializedVersion: 2
  m_Modification:
    m_TransformParent: {fileID: 1012910166483950023}
    m_Modifications:
    - target: {fileID: 1677737249908334440, guid: 4ef268a179739cc4ca0a2089b39a7a3c, type: 3}
      propertyPath: m_RootOrder
      value: 0
      objectReference: {fileID: 0}
    - target: {fileID: 1677737249908334440, guid: 4ef268a179739cc4ca0a2089b39a7a3c, type: 3}
      propertyPath: m_LocalPosition.x
      value: 0
      objectReference: {fileID: 0}
    - target: {fileID: 1677737249908334440, guid: 4ef268a179739cc4ca0a2089b39a7a3c, type: 3}
      propertyPath: m_LocalPosition.y
      value: 0
      objectReference: {fileID: 0}
    - target: {fileID: 1677737249908334440, guid: 4ef268a179739cc4ca0a2089b39a7a3c, type: 3}
      propertyPath: m_LocalPosition.z
      value: 0
      objectReference: {fileID: 0}
    - target: {fileID: 1677737249908334440, guid: 4ef268a179739cc4ca0a2089b39a7a3c, type: 3}
      propertyPath: m_LocalRotation.w
      value: 1
      objectReference: {fileID: 0}
    - target: {fileID: 1677737249908334440, guid: 4ef268a179739cc4ca0a2089b39a7a3c, type: 3}
      propertyPath: m_LocalRotation.x
      value: -0
      objectReference: {fileID: 0}
    - target: {fileID: 1677737249908334440, guid: 4ef268a179739cc4ca0a2089b39a7a3c, type: 3}
      propertyPath: m_LocalRotation.y
      value: -0
      objectReference: {fileID: 0}
    - target: {fileID: 1677737249908334440, guid: 4ef268a179739cc4ca0a2089b39a7a3c, type: 3}
      propertyPath: m_LocalRotation.z
      value: -0
      objectReference: {fileID: 0}
    - target: {fileID: 1677737249908334440, guid: 4ef268a179739cc4ca0a2089b39a7a3c, type: 3}
      propertyPath: m_LocalEulerAnglesHint.x
      value: 0
      objectReference: {fileID: 0}
    - target: {fileID: 1677737249908334440, guid: 4ef268a179739cc4ca0a2089b39a7a3c, type: 3}
      propertyPath: m_LocalEulerAnglesHint.y
      value: 0
      objectReference: {fileID: 0}
    - target: {fileID: 1677737249908334440, guid: 4ef268a179739cc4ca0a2089b39a7a3c, type: 3}
      propertyPath: m_LocalEulerAnglesHint.z
      value: 0
      objectReference: {fileID: 0}
    - target: {fileID: 3584599336316160945, guid: 4ef268a179739cc4ca0a2089b39a7a3c, type: 3}
      propertyPath: m_LocalScale.x
      value: 1.71
      objectReference: {fileID: 0}
    - target: {fileID: 4549419861484225779, guid: 4ef268a179739cc4ca0a2089b39a7a3c, type: 3}
      propertyPath: shadowCastingObject
      value: 
      objectReference: {fileID: 1012910166483950024}
    - target: {fileID: 6673700470848323149, guid: 4ef268a179739cc4ca0a2089b39a7a3c, type: 3}
      propertyPath: m_Name
      value: DropShadowController
      objectReference: {fileID: 0}
    m_RemovedComponents: []
  m_SourcePrefab: {fileID: 100100000, guid: 4ef268a179739cc4ca0a2089b39a7a3c, type: 3}
--- !u!4 &2614744573393097590 stripped
Transform:
  m_CorrespondingSourceObject: {fileID: 1677737249908334440, guid: 4ef268a179739cc4ca0a2089b39a7a3c, type: 3}
  m_PrefabInstance: {fileID: 3675488657063791646}
  m_PrefabAsset: {fileID: 0}
--- !u!1 &8042384733076107859 stripped
GameObject:
  m_CorrespondingSourceObject: {fileID: 6673700470848323149, guid: 4ef268a179739cc4ca0a2089b39a7a3c, type: 3}
  m_PrefabInstance: {fileID: 3675488657063791646}
  m_PrefabAsset: {fileID: 0}
